{"logs":[{"action":"USER_REGISTERED","details":"User QA Role Escalation registered","bug":null,"user":{"email":"qa-role-5505@example.com","name":"QA Role Escalation","id":"de7ddf9d-204d-40c5-9648-810f8a98c37b"},"createdAt":"2026-05-05T01:28:10.209Z","id":"219f2654-cf48-4a00-ab5a-81aecfab40d7"},{"action":"USER_REGISTERED","details":"User QA Valid User registered","bug":null,"user":{"email":"qa-valid-5505@example.com","name":"QA Valid User","id":"9e9633e8-4de0-4738-9e00-744e497dddb2"},"createdAt":"2026-05-05T01:28:06.528Z","id":"d77f6ee9-ddca-48bc-9dd3-2484cf453152"},{"action":"BUG_ASSIGNED","details":"Bug assigned to Demo Dev Lead","bug":{"title":"Attachment upload fails silently for files larger than 2 MB","id":"ab04d890-86d6-43c4-b940-54ad17e37d2f"},"user":{"email":"mohamedhammad3142@gmail.com","name":"boghdaddy","id":"42c73022-9a9b-4c17-952b-ab5b4e3ff0d8"},"createdAt":"2026-05-05T01:12:59.855Z","id":"0159b412-6d99-473e-83bf-f29340de3df3"},{"action":"ATTACHMENT_UPLOADED","details":"Screenshot attached by customer on: \"Profile and Settings menu items are not clickable\"","bug":{"title":"Profile and Settings menu items are not clickable","id":"7b3dcc43-128d-462d-9bd2-4ea37d67508b"},"user":{"email":"joenasr@gmail.com","name":"joa nasr","id":"896cebc5-0809-4524-99ce-bbfc0625c229"},"createdAt":"2026-05-05T01:11:07.152Z","id":"75e35cd0-111d-4ffd-95cf-d86ec018cdd2"},{"action":"COMMENT_ADDED","details":"Tester added reproduction notes on: \"Profile and Settings menu items are not clickable\"","bug":{"title":"Profile and Settings menu items are not clickable","id":"7b3dcc43-128d-462d-9bd2-4ea37d67508b"},"user":{"email":"mohamedhammad3.142@gmail.com","name":"Mohamed Hammad","id":"c0d7103b-eab8-49cf-a64c-7ca143ce0c23"},"createdAt":"2026-05-05T01:11:06.846Z","id":"cd6495f1-61dc-4d6b-8f51-b883b487478e"}],"pagination":{"page":1,"limit":5,"total":20,"pages":4}}